riscv_processor_complete.vcd
$date
	Thu Jun  5 23:34:23 2025
$end
$version
	Icarus Verilog
$end
$timescale
	1ps
$end
$scope module riscv_processor_complete_tb $end
$var wire 32 ! write_data_out [31:0] $end
$var wire 32 " reg_write_data_out [31:0] $end
$var wire 32 # read_data_out [31:0] $end
$var wire 32 $ pc_out [31:0] $end
$var wire 32 % instruction_out [31:0] $end
$var wire 32 & alu_result_out [31:0] $end
$var reg 1 ' clk $end
$var reg 1 ( reset $end
$scope module uut $end
$var wire 32 ) alu_result_out [31:0] $end
$var wire 1 ' clk $end
$var wire 32 * instruction_out [31:0] $end
$var wire 32 + read_data_out [31:0] $end
$var wire 32 , reg_write_data_out [31:0] $end
$var wire 1 ( reset $end
$var wire 32 - write_data_out [31:0] $end
$var wire 32 . write_data [31:0] $end
$var wire 32 / src_b [31:0] $end
$var wire 32 0 src_a [31:0] $end
$var wire 2 1 result_src [1:0] $end
$var wire 32 2 result [31:0] $end
$var wire 1 3 reg_write $end
$var wire 32 4 read_data [31:0] $end
$var wire 32 5 pc_target [31:0] $end
$var wire 1 6 pc_src $end
$var wire 32 7 pc_plus4 [31:0] $end
$var wire 32 8 pc_out [31:0] $end
$var wire 32 9 pc_next [31:0] $end
$var wire 1 : mem_write $end
$var wire 1 ; jump $end
$var wire 32 < instruction [31:0] $end
$var wire 2 = imm_src [1:0] $end
$var wire 32 > imm_ext [31:0] $end
$var wire 1 ? branch $end
$var wire 1 @ alu_zero $end
$var wire 1 A alu_src $end
$var wire 32 B alu_result [31:0] $end
$var wire 4 C alu_control [3:0] $end
$scope module alu_inst $end
$var wire 32 D src_b [31:0] $end
$var wire 1 @ zero $end
$var wire 32 E src_a [31:0] $end
$var wire 4 F alu_control [3:0] $end
$var reg 32 G alu_result [31:0] $end
$upscope $end
$scope module ctrl $end
$var wire 3 H funct3 [2:0] $end
$var wire 1 I funct7 $end
$var wire 7 J opcode [6:0] $end
$var wire 1 6 pc_src $end
$var wire 1 @ zero $end
$var wire 2 K result_src [1:0] $end
$var wire 1 3 reg_write $end
$var wire 1 : mem_write $end
$var wire 1 ; jump $end
$var wire 2 L imm_src [1:0] $end
$var wire 1 M branch_taken $end
$var wire 1 ? branch $end
$var wire 1 A alu_src $end
$var wire 2 N alu_op [1:0] $end
$var wire 4 O alu_control [3:0] $end
$scope module alu_dec $end
$var wire 3 P funct3 [2:0] $end
$var wire 1 I funct7 $end
$var wire 1 Q opcode $end
$var wire 2 R alu_op [1:0] $end
$var reg 4 S alu_control [3:0] $end
$upscope $end
$scope module branch_logic $end
$var wire 3 T funct3 [2:0] $end
$var wire 1 @ zero $end
$var wire 1 ? branch $end
$var reg 1 M branch_taken $end
$upscope $end
$scope module main_dec $end
$var wire 7 U opcode [6:0] $end
$var reg 2 V alu_op [1:0] $end
$var reg 1 A alu_src $end
$var reg 1 ? branch $end
$var reg 2 W imm_src [1:0] $end
$var reg 1 ; jump $end
$var reg 1 : mem_write $end
$var reg 1 3 reg_write $end
$var reg 2 X result_src [1:0] $end
$upscope $end
$upscope $end
$scope module dmem $end
$var wire 32 Y address [31:0] $end
$var wire 1 ' clk $end
$var wire 32 Z read_data [31:0] $end
$var wire 1 : we $end
$var wire 32 [ write_data [31:0] $end
$scope begin $ivl_for_loop2 $end
$var integer 32 \ i [31:0] $end
$upscope $end
$upscope $end
$scope module ext $end
$var wire 2 ] imm_src [1:0] $end
$var wire 32 ^ instr [31:0] $end
$var reg 32 _ imm_ext [31:0] $end
$upscope $end
$scope module imem $end
$var wire 32 ` address [31:0] $end
$var reg 32 a instruction [31:0] $end
$scope begin $ivl_for_loop0 $end
$var integer 32 b i [31:0] $end
$upscope $end
$upscope $end
$scope module pc_inst $end
$var wire 1 ' clk $end
$var wire 32 c pc_next [31:0] $end
$var wire 1 ( reset $end
$var reg 32 d pc_out [31:0] $end
$upscope $end
$scope module regfile $end
$var wire 5 e a1 [4:0] $end
$var wire 5 f a2 [4:0] $end
$var wire 5 g a3 [4:0] $end
$var wire 1 ' clk $end
$var wire 1 3 we3 $end
$var wire 32 h wd3 [31:0] $end
$var wire 32 i rd2 [31:0] $end
$var wire 32 j rd1 [31:0] $end
$scope begin $ivl_for_loop1 $end
$var integer 32 k i [31:0] $end
$upscope $end
$upscope $end
$scope module res_mux $end
$var wire 32 l alu_result [31:0] $end
$var wire 32 m imm_ext [31:0] $end
$var wire 32 n pc_plus4 [31:0] $end
$var wire 32 o read_data [31:0] $end
$var wire 2 p result_src [1:0] $end
$var reg 32 q result [31:0] $end
$upscope $end
$upscope $end
$upscope $end
$enddefinitions $end
#0
$dumpvars
bx q
bx p
bx o
bx n
bx m
bx l
b100000 k
bx j
bx i
bx h
bx g
bx f
bx e
bx d
bx c
b1000000 b
bx a
bx `
bx _
bx ^
bx ]
b1000000 \
bx [
bx Z
bx Y
bx X
bx W
bx V
bx U
bx T
bx S
bx R
xQ
bx P
bx O
bx N
xM
bx L
bx K
bx J
xI
bx H
bx G
bx F
bx E
bx D
bx C
bx B
xA
x@
x?
bx >
bx =
bx <
x;
x:
bx 9
bx 8
bx 7
x6
bx 5
bx 4
x3
bx 2
bx 1
bx 0
bx /
bx .
bx -
bx ,
bx +
bx *
bx )
1(
0'
bx &
bx %
bx $
bx #
bx "
bx !
$end
#5000
b0 #
b0 +
b0 4
b0 Z
b0 o
b101 "
b101 ,
b101 2
b101 h
b101 q
0@
b101 &
b101 )
b101 B
b101 G
b101 Y
b101 l
b101 /
b101 D
b0 !
b0 -
b0 .
b0 [
b0 i
b0 0
b0 E
b0 j
b0 C
b0 F
b0 O
b0 S
06
0M
0Q
b10 N
b10 R
b10 V
b0 =
b0 L
b0 W
b0 ]
0;
13
1A
0?
0:
b0 1
b0 K
b0 X
b0 p
b100 9
b100 c
b1 g
b101 f
b0 e
0I
b0 H
b0 P
b0 T
b10011 J
b10011 U
b101 5
b101 >
b101 _
b101 m
b10100000000000010010011 %
b10100000000000010010011 *
b10100000000000010010011 <
b10100000000000010010011 ^
b10100000000000010010011 a
b100 7
b100 n
b0 $
b0 8
b0 `
b0 d
1'
#10000
0'
#15000
b1010 "
b1010 ,
b1010 2
b1010 h
b1010 q
b1010 &
b1010 )
b1010 B
b1010 G
b1010 Y
b1010 l
b1010 /
b1010 D
b10 g
b1010 f
b1010 >
b1010 _
b1010 m
b1000 9
b1000 c
b101000000000000100010011 %
b101000000000000100010011 *
b101000000000000100010011 <
b101000000000000100010011 ^
b101000000000000100010011 a
b1110 5
b1000 7
b1000 n
b100 $
b100 8
b100 `
b100 d
1'
0(
#20000
0'
#25000
bx #
bx +
bx 4
bx Z
bx o
b11111111111111111111111111111111 "
b11111111111111111111111111111111 ,
b11111111111111111111111111111111 2
b11111111111111111111111111111111 h
b11111111111111111111111111111111 q
b11111111111111111111111111111111 &
b11111111111111111111111111111111 )
b11111111111111111111111111111111 B
b11111111111111111111111111111111 G
b11111111111111111111111111111111 Y
b11111111111111111111111111111111 l
b11111111111111111111111111111111 /
b11111111111111111111111111111111 D
b11 g
b11111 f
1I
b11111111111111111111111111111111 >
b11111111111111111111111111111111 _
b11111111111111111111111111111111 m
b1100 9
b1100 c
b11111111111100000000000110010011 %
b11111111111100000000000110010011 *
b11111111111100000000000110010011 <
b11111111111100000000000110010011 ^
b11111111111100000000000110010011 a
b111 5
b1100 7
b1100 n
b1000 $
b1000 8
b1000 `
b1000 d
1'
#30000
0'
#35000
b0 #
b0 +
b0 4
b0 Z
b0 o
b10100 "
b10100 ,
b10100 2
b10100 h
b10100 q
b10100 &
b10100 )
b10100 B
b10100 G
b10100 Y
b10100 l
b1010 !
b1010 -
b1010 .
b1010 [
b1010 i
b101 0
b101 E
b101 j
b100 C
b100 F
b100 O
b100 S
b10 /
b10 D
b100 g
b10 f
b1 e
0I
b1 H
b1 P
b1 T
b10 >
b10 _
b10 m
b10000 9
b10000 c
b1000001001001000010011 %
b1000001001001000010011 *
b1000001001001000010011 <
b1000001001001000010011 ^
b1000001001001000010011 a
b1110 5
b10000 7
b10000 n
b1100 $
b1100 8
b1100 `
b1100 d
1'
#40000
0'
#45000
b0 "
b0 ,
b0 2
b0 h
b0 q
1@
b0 &
b0 )
b0 B
b0 G
b0 Y
b0 l
b101 C
b101 F
b101 O
b101 S
b101 g
b10 H
b10 P
b10 T
b10100 9
b10100 c
b1000001010001010010011 %
b1000001010001010010011 *
b1000001010001010010011 <
b1000001010001010010011 ^
b1000001010001010010011 a
b10010 5
b10100 7
b10100 n
b10000 $
b10000 8
b10000 `
b10000 d
1'
#50000
0'
#55000
b1111 "
b1111 ,
b1111 2
b1111 h
b1111 q
0@
b1111 &
b1111 )
b1111 B
b1111 G
b1111 Y
b1111 l
b1010 /
b1010 D
b0 C
b0 F
b0 O
b0 S
1Q
b10 N
b10 R
b10 V
13
0A
b11 g
b0 H
b0 P
b0 T
b110011 J
b110011 U
b11000 9
b11000 c
b1000001000000110110011 %
b1000001000000110110011 *
b1000001000000110110011 <
b1000001000000110110011 ^
b1000001000000110110011 a
b10110 5
b11000 7
b11000 n
b10100 $
b10100 8
b10100 `
b10100 d
1'
#60000
0'
#65000
bx #
bx +
bx 4
bx Z
bx o
b11111111111111111111111111111011 "
b11111111111111111111111111111011 ,
b11111111111111111111111111111011 2
b11111111111111111111111111111011 h
b11111111111111111111111111111011 q
b11111111111111111111111111111011 &
b11111111111111111111111111111011 )
b11111111111111111111111111111011 B
b11111111111111111111111111111011 G
b11111111111111111111111111111011 Y
b11111111111111111111111111111011 l
b1 C
b1 F
b1 O
b1 S
b100 g
1I
b10000000010 >
b10000000010 _
b10000000010 m
b11100 9
b11100 c
b1000000001000001000001000110011 %
b1000000001000001000001000110011 *
b1000000001000001000001000110011 <
b1000000001000001000001000110011 ^
b1000000001000001000001000110011 a
b10000011010 5
b11100 7
b11100 n
b11000 $
b11000 8
b11000 `
b11000 d
1'
#70000
0'
#75000
b0 #
b0 +
b0 4
b0 Z
b0 o
b0 "
b0 ,
b0 2
b0 h
b0 q
1@
b0 &
b0 )
b0 B
b0 G
b0 Y
b0 l
b10 C
b10 F
b10 O
b10 S
b101 g
0I
b111 H
b111 P
b111 T
b10 >
b10 _
b10 m
b100000 9
b100000 c
b1000001111001010110011 %
b1000001111001010110011 *
b1000001111001010110011 <
b1000001111001010110011 ^
b1000001111001010110011 a
b11110 5
b100000 7
b100000 n
b11100 $
b11100 8
b11100 `
b11100 d
1'
#80000
0'
#85000
b1111 "
b1111 ,
b1111 2
b1111 h
b1111 q
0@
b1111 &
b1111 )
b1111 B
b1111 G
b1111 Y
b1111 l
b11 C
b11 F
b11 O
b11 S
b110 g
b110 H
b110 P
b110 T
b100100 9
b100100 c
b1000001110001100110011 %
b1000001110001100110011 *
b1000001110001100110011 <
b1000001110001100110011 ^
b1000001110001100110011 a
b100010 5
b100100 7
b100100 n
b100000 $
b100000 8
b100000 `
b100000 d
1'
#90000
0'
#95000
b111 C
b111 F
b111 O
b111 S
b111 g
b100 H
b100 P
b100 T
b101000 9
b101000 c
b1000001100001110110011 %
b1000001100001110110011 *
b1000001100001110110011 <
b1000001100001110110011 ^
b1000001100001110110011 a
b100110 5
b101000 7
b101000 n
b100100 $
b100100 8
b100100 `
b100100 d
1'
#100000
0'
#105000
bx #
bx +
bx 4
bx Z
bx o
b1010000000000 "
b1010000000000 ,
b1010000000000 2
b1010000000000 h
b1010000000000 q
b1010000000000 &
b1010000000000 )
b1010000000000 B
b1010000000000 G
b1010000000000 Y
b1010000000000 l
b100 C
b100 F
b100 O
b100 S
b1001 g
b1 H
b1 P
b1 T
b101100 9
b101100 c
b1000001001010010110011 %
b1000001001010010110011 *
b1000001001010010110011 <
b1000001001010010110011 ^
b1000001001010010110011 a
b101010 5
b101100 7
b101100 n
b101000 $
b101000 8
b101000 `
b101000 d
1'
#110000
0'
#115000
b0 #
b0 +
b0 4
b0 Z
b0 o
b1 "
b1 ,
b1 2
b1 h
b1 q
b1 &
b1 )
b1 B
b1 G
b1 Y
b1 l
b101 C
b101 F
b101 O
b101 S
b1010 g
b10 H
b10 P
b10 T
b110000 9
b110000 c
b1000001010010100110011 %
b1000001010010100110011 *
b1000001010010100110011 <
b1000001010010100110011 ^
b1000001010010100110011 a
b101110 5
b110000 7
b110000 n
b101100 $
b101100 8
b101100 `
b101100 d
1'
#120000
0'
#125000
bx #
bx +
bx 4
bx Z
bx o
b10010000000001010 &
b10010000000001010 )
b10010000000001010 B
b10010000000001010 G
b10010000000001010 Y
b10010000000001010 l
b10010000000000000 /
b10010000000000000 D
b10010000000000000 "
b10010000000000000 ,
b10010000000000000 2
b10010000000000000 h
b10010000000000000 q
b0 C
b0 F
b0 O
b0 S
b0 !
b0 -
b0 .
b0 [
b0 i
b1010 0
b1010 E
b1010 j
b11 =
b11 L
b11 W
b11 ]
1A
b11 1
b11 K
b11 X
b11 p
b0 N
b0 R
b0 V
13
b1011 g
b0 f
b10 e
b110111 J
b110111 U
b10010000000000000 >
b10010000000000000 _
b10010000000000000 m
b110100 9
b110100 c
b10010010110110111 %
b10010010110110111 *
b10010010110110111 <
b10010010110110111 ^
b10010010110110111 a
b10010000000110000 5
b110100 7
b110100 n
b110000 $
b110000 8
b110000 `
b110000 d
1'
#130000
0'
#135000
b10010000000001010 "
b10010000000001010 ,
b10010000000001010 2
b10010000000001010 h
b10010000000001010 q
0Q
b11 =
b11 L
b11 W
b11 ]
13
1A
b0 1
b0 K
b0 X
b0 p
b1100 g
b10111 J
b10111 U
b111000 9
b111000 c
b10010011000010111 %
b10010011000010111 *
b10010011000010111 <
b10010011000010111 ^
b10010011000010111 a
b10010000000110100 5
b111000 7
b111000 n
b110100 $
b110100 8
b110100 `
b110100 d
1'
#140000
0'
#145000
b0 #
b0 +
b0 4
b0 Z
b0 o
1@
b0 "
b0 ,
b0 2
b0 h
b0 q
b0 &
b0 )
b0 B
b0 G
b0 Y
b0 l
b1111 !
b1111 -
b1111 .
b1111 [
b1111 i
b0 0
b0 E
b0 j
1Q
1:
b1 =
b1 L
b1 W
b1 ]
03
1A
b0 /
b0 D
b0 g
b11 f
b0 e
b100011 J
b100011 U
b0 >
b0 _
b0 m
b111100 9
b111100 c
b1100000010000000100011 %
b1100000010000000100011 *
b1100000010000000100011 <
b1100000010000000100011 ^
b1100000010000000100011 a
b111000 5
b111100 7
b111100 n
b111000 $
b111000 8
b111000 `
b111000 d
1'
#150000
0'
#155000
b100 "
b100 ,
b100 2
b100 h
b100 q
0@
b100 &
b100 )
b100 B
b100 G
b100 Y
b100 l
b11111111111111111111111111111011 !
b11111111111111111111111111111011 -
b11111111111111111111111111111011 .
b11111111111111111111111111111011 [
b11111111111111111111111111111011 i
b100 /
b100 D
b100 g
b100 f
b100 >
b100 _
b100 m
b1000000 9
b1000000 c
b10000000010001000100011 %
b10000000010001000100011 *
b10000000010001000100011 <
b10000000010001000100011 ^
b10000000010001000100011 a
b0 #
b0 +
b0 4
b0 Z
b0 o
b1000000 5
b1000000 7
b1000000 n
b111100 $
b111100 8
b111100 `
b111100 d
1'
#160000
0'
#165000
1@
b1111 "
b1111 ,
b1111 2
b1111 h
b1111 q
b0 &
b0 )
b0 B
b0 G
b0 Y
b0 l
b0 !
b0 -
b0 .
b0 [
b0 i
0Q
13
b1 1
b1 K
b1 X
b1 p
b0 =
b0 L
b0 W
b0 ]
1A
0:
b0 /
b0 D
b1101 g
b0 f
b11 J
b11 U
b0 >
b0 _
b0 m
b1000100 9
b1000100 c
b10011010000011 %
b10011010000011 *
b10011010000011 <
b10011010000011 ^
b10011010000011 a
b1000000 5
b1000100 7
b1000100 n
b1000000 $
b1000000 8
b1000000 `
b1000000 d
b1111 #
b1111 +
b1111 4
b1111 Z
b1111 o
1'
#170000
0'
#175000
b11111111111111111111111111111011 "
b11111111111111111111111111111011 ,
b11111111111111111111111111111011 2
b11111111111111111111111111111011 h
b11111111111111111111111111111011 q
b11111111111111111111111111111011 #
b11111111111111111111111111111011 +
b11111111111111111111111111111011 4
b11111111111111111111111111111011 Z
b11111111111111111111111111111011 o
0@
b100 &
b100 )
b100 B
b100 G
b100 Y
b100 l
b11111111111111111111111111111011 !
b11111111111111111111111111111011 -
b11111111111111111111111111111011 .
b11111111111111111111111111111011 [
b11111111111111111111111111111011 i
b100 /
b100 D
b1110 g
b100 f
b100 >
b100 _
b100 m
b1001000 9
b1001000 c
b10000000010011100000011 %
b10000000010011100000011 *
b10000000010011100000011 <
b10000000010011100000011 ^
b10000000010011100000011 a
b1001000 5
b1001000 7
b1001000 n
b1000100 $
b1000100 8
b1000100 `
b1000100 d
1'
#180000
0'
#185000
bx #
bx +
bx 4
bx Z
bx o
b11111111111111111111111111111011 "
b11111111111111111111111111111011 ,
b11111111111111111111111111111011 2
b11111111111111111111111111111011 h
b11111111111111111111111111111011 q
b11111111111111111111111111111011 &
b11111111111111111111111111111011 )
b11111111111111111111111111111011 B
b11111111111111111111111111111011 G
b11111111111111111111111111111011 Y
b11111111111111111111111111111011 l
b1010 !
b1010 -
b1010 .
b1010 [
b1010 i
b101 0
b101 E
b101 j
b1 C
b1 F
b1 O
b1 S
1Q
b1 N
b1 R
b1 V
b10 =
b10 L
b10 W
b10 ]
1?
03
0A
b0 1
b0 K
b0 X
b0 p
b1010 /
b1010 D
b1000 g
b10 f
b1 e
b0 H
b0 P
b0 T
b1100011 J
b1100011 U
b1000 >
b1000 _
b1000 m
b1001100 9
b1001100 c
b1000001000010001100011 %
b1000001000010001100011 *
b1000001000010001100011 <
b1000001000010001100011 ^
b1000001000010001100011 a
b1010000 5
b1001100 7
b1001100 n
b1001000 $
b1001000 8
b1001000 `
b1001000 d
1'
#190000
0'
#195000
16
1M
b1 H
b1 P
b1 T
b1010100 9
b1010100 c
b1000001001010001100011 %
b1000001001010001100011 *
b1000001001010001100011 <
b1000001001010001100011 ^
b1000001001010001100011 a
b1010100 5
b1010000 7
b1010000 n
b1001100 $
b1001100 8
b1001100 `
b1001100 d
1'
#200000
0'
#205000
06
0M
b101 H
b101 P
b101 T
b1011000 9
b1011000 c
b1000001101010001100011 %
b1000001101010001100011 *
b1000001101010001100011 <
b1000001101010001100011 ^
b1000001101010001100011 a
b1011100 5
b1011000 7
b1011000 n
b1010100 $
b1010100 8
b1010100 `
b1010100 d
1'
#210000
0'
#215000
b0 #
b0 +
b0 4
b0 Z
b0 o
b1000 &
b1000 )
b1000 B
b1000 G
b1000 Y
b1000 l
b1000 /
b1000 D
b1011100 "
b1011100 ,
b1011100 2
b1011100 h
b1011100 q
b0 !
b0 -
b0 .
b0 [
b0 i
b0 0
b0 E
b0 j
b0 C
b0 F
b0 O
b0 S
1;
13
1A
b10 1
b10 K
b10 X
b10 p
b0 N
b0 R
b0 V
b11 =
b11 L
b11 W
b11 ]
0?
b1 g
b1000 f
b0 e
b0 H
b0 P
b0 T
b1101111 J
b1101111 U
b1000 >
b1000 _
b1000 m
b1100000 9
b1100000 c
b100000000000000011101111 %
b100000000000000011101111 *
b100000000000000011101111 <
b100000000000000011101111 ^
b100000000000000011101111 a
b1100000 5
b1011100 7
b1011100 n
b1011000 $
b1011000 8
b1011000 `
b1011000 d
1'
#220000
0'
#225000
b1111 #
b1111 +
b1111 4
b1111 Z
b1111 o
1@
b0 &
b0 )
b0 B
b0 G
b0 Y
b0 l
0Q
b10 N
b10 R
b10 V
b0 =
b0 L
b0 W
b0 ]
0;
13
1A
b0 1
b0 K
b0 X
b0 p
b0 /
b0 D
b0 g
b0 f
b10011 J
b10011 U
b0 >
b0 _
b0 m
b1100100 9
b1100100 c
b0 "
b0 ,
b0 2
b0 h
b0 q
b10011 %
b10011 *
b10011 <
b10011 ^
b10011 a
b1100000 5
b1100100 7
b1100100 n
b1100000 $
b1100000 8
b1100000 `
b1100000 d
1'
#230000
0'
#235000
b1101000 9
b1101000 c
b1100100 5
b1101000 7
b1101000 n
b1100100 $
b1100100 8
b1100100 `
b1100100 d
1'
#240000
0'
#245000
b0 #
b0 +
b0 4
b0 Z
b0 o
b1101100 "
b1101100 ,
b1101100 2
b1101100 h
b1101100 q
0@
b1011101 &
b1011101 )
b1011101 B
b1011101 G
b1011101 Y
b1011101 l
b1011100 !
b1011100 -
b1011100 .
b1011100 [
b1011100 i
b1011100 0
b1011100 E
b1011100 j
1Q
1;
b10 1
b10 K
b10 X
b10 p
b0 N
b0 R
b0 V
13
1A
b1 /
b1 D
b1 f
b1 e
b1100111 J
b1100111 U
b1 >
b1 _
b1 m
b1101001 9
b1101001 c
b100001000000001100111 %
b100001000000001100111 *
b100001000000001100111 <
b100001000000001100111 ^
b100001000000001100111 a
b1101001 5
b1101100 7
b1101100 n
b1101000 $
b1101000 8
b1101000 `
b1101000 d
1'
#250000
0'
#255000
b1101010 9
b1101010 c
b1101101 "
b1101101 ,
b1101101 2
b1101101 h
b1101101 q
b1101010 5
b1101101 7
b1101101 n
b1101001 $
b1101001 8
b1101001 `
b1101001 d
1'
#260000
0'
#265000
b1101011 9
b1101011 c
b1101110 "
b1101110 ,
b1101110 2
b1101110 h
b1101110 q
b1101011 5
b1101110 7
b1101110 n
b1101010 $
b1101010 8
b1101010 `
b1101010 d
1'
#270000
0'
#275000
b1101100 9
b1101100 c
b1101111 "
b1101111 ,
b1101111 2
b1101111 h
b1101111 q
b1101100 5
b1101111 7
b1101111 n
b1101011 $
b1101011 8
b1101011 `
b1101011 d
1'
#280000
0'
#285000
b1111 #
b1111 +
b1111 4
b1111 Z
b1111 o
b11 &
b11 )
b11 B
b11 G
b11 Y
b11 l
b1111 !
b1111 -
b1111 .
b1111 [
b1111 i
b0 0
b0 E
b0 j
0Q
b10 N
b10 R
b10 V
0;
13
1A
b0 1
b0 K
b0 X
b0 p
b11 /
b11 D
b1111 g
b11 f
b0 e
b10011 J
b10011 U
b11 >
b11 _
b11 m
b1110000 9
b1110000 c
b11 "
b11 ,
b11 2
b11 h
b11 q
b1100000000011110010011 %
b1100000000011110010011 *
b1100000000011110010011 <
b1100000000011110010011 ^
b1100000000011110010011 a
b1101111 5
b1110000 7
b1110000 n
b1101100 $
b1101100 8
b1101100 `
b1101100 d
1'
#290000
0'
#295000
b0 "
b0 ,
b0 2
b0 h
b0 q
1@
b0 &
b0 )
b0 B
b0 G
b0 Y
b0 l
b0 !
b0 -
b0 .
b0 [
b0 i
b0 /
b0 D
b0 g
b0 f
b0 >
b0 _
b0 m
b1110100 9
b1110100 c
b10011 %
b10011 *
b10011 <
b10011 ^
b10011 a
b1110000 5
b1110100 7
b1110100 n
b1110000 $
b1110000 8
b1110000 `
b1110000 d
1'
#300000
0'
#305000
b1111000 9
b1111000 c
b1110100 5
b1111000 7
b1111000 n
b1110100 $
b1110100 8
b1110100 `
b1110100 d
1'
#310000
0'
#315000
b1111100 9
b1111100 c
b1111000 5
b1111100 7
b1111100 n
b1111000 $
b1111000 8
b1111000 `
b1111000 d
1'
#320000
0'
#325000
b10000000 9
b10000000 c
b1111100 5
b10000000 7
b10000000 n
b1111100 $
b1111100 8
b1111100 `
b1111100 d
1'
#330000
0'
#335000
b10000100 9
b10000100 c
b10000000 5
b10000100 7
b10000100 n
b10000000 $
b10000000 8
b10000000 `
b10000000 d
1'
#340000
0'
#345000
b10001000 9
b10001000 c
b10000100 5
b10001000 7
b10001000 n
b10000100 $
b10000100 8
b10000100 `
b10000100 d
1'
#350000
0'
#355000
b10001100 9
b10001100 c
b10001000 5
b10001100 7
b10001100 n
b10001000 $
b10001000 8
b10001000 `
b10001000 d
1'
#356000
1(
#360000
0'
#365000
b11111111111111111111111111111011 #
b11111111111111111111111111111011 +
b11111111111111111111111111111011 4
b11111111111111111111111111111011 Z
b11111111111111111111111111111011 o
b101 "
b101 ,
b101 2
b101 h
b101 q
0@
b101 &
b101 )
b101 B
b101 G
b101 Y
b101 l
b101 /
b101 D
b1 g
b101 f
b101 >
b101 _
b101 m
b100 9
b100 c
b10100000000000010010011 %
b10100000000000010010011 *
b10100000000000010010011 <
b10100000000000010010011 ^
b10100000000000010010011 a
b101 5
b100 7
b100 n
b0 $
b0 8
b0 `
b0 d
1'
#366000
0(
#370000
0'
#375000
b0 #
b0 +
b0 4
b0 Z
b0 o
b1010 "
b1010 ,
b1010 2
b1010 h
b1010 q
b1010 &
b1010 )
b1010 B
b1010 G
b1010 Y
b1010 l
b1 !
b1 -
b1 .
b1 [
b1 i
b1010 /
b1010 D
b10 g
b1010 f
b1010 >
b1010 _
b1010 m
b1000 9
b1000 c
b101000000000000100010011 %
b101000000000000100010011 *
b101000000000000100010011 <
b101000000000000100010011 ^
b101000000000000100010011 a
b1110 5
b1000 7
b1000 n
b100 $
b100 8
b100 `
b100 d
1'
#380000
0'
#385000
bx #
bx +
bx 4
bx Z
bx o
b11111111111111111111111111111111 "
b11111111111111111111111111111111 ,
b11111111111111111111111111111111 2
b11111111111111111111111111111111 h
b11111111111111111111111111111111 q
b11111111111111111111111111111111 &
b11111111111111111111111111111111 )
b11111111111111111111111111111111 B
b11111111111111111111111111111111 G
b11111111111111111111111111111111 Y
b11111111111111111111111111111111 l
b0 !
b0 -
b0 .
b0 [
b0 i
b11111111111111111111111111111111 /
b11111111111111111111111111111111 D
b11 g
b11111 f
1I
b11111111111111111111111111111111 >
b11111111111111111111111111111111 _
b11111111111111111111111111111111 m
b1100 9
b1100 c
b11111111111100000000000110010011 %
b11111111111100000000000110010011 *
b11111111111100000000000110010011 <
b11111111111100000000000110010011 ^
b11111111111100000000000110010011 a
b111 5
b1100 7
b1100 n
b1000 $
b1000 8
b1000 `
b1000 d
1'
#390000
0'
#395000
b0 #
b0 +
b0 4
b0 Z
b0 o
b10100 "
b10100 ,
b10100 2
b10100 h
b10100 q
b10100 &
b10100 )
b10100 B
b10100 G
b10100 Y
b10100 l
b1010 !
b1010 -
b1010 .
b1010 [
b1010 i
b101 0
b101 E
b101 j
b100 C
b100 F
b100 O
b100 S
b10 /
b10 D
b100 g
b10 f
b1 e
0I
b1 H
b1 P
b1 T
b10 >
b10 _
b10 m
b10000 9
b10000 c
b1000001001001000010011 %
b1000001001001000010011 *
b1000001001001000010011 <
b1000001001001000010011 ^
b1000001001001000010011 a
b1110 5
b10000 7
b10000 n
b1100 $
b1100 8
b1100 `
b1100 d
1'
#400000
0'
#405000
b1111 #
b1111 +
b1111 4
b1111 Z
b1111 o
b0 "
b0 ,
b0 2
b0 h
b0 q
1@
b0 &
b0 )
b0 B
b0 G
b0 Y
b0 l
b101 C
b101 F
b101 O
b101 S
b101 g
b10 H
b10 P
b10 T
b10100 9
b10100 c
b1000001010001010010011 %
b1000001010001010010011 *
b1000001010001010010011 <
b1000001010001010010011 ^
b1000001010001010010011 a
b10010 5
b10100 7
b10100 n
b10000 $
b10000 8
b10000 `
b10000 d
1'
#410000
0'
#415000
b0 #
b0 +
b0 4
b0 Z
b0 o
b1111 "
b1111 ,
b1111 2
b1111 h
b1111 q
0@
b1111 &
b1111 )
b1111 B
b1111 G
b1111 Y
b1111 l
b1010 /
b1010 D
b0 C
b0 F
b0 O
b0 S
1Q
b10 N
b10 R
b10 V
13
0A
b11 g
b0 H
b0 P
b0 T
b110011 J
b110011 U
b11000 9
b11000 c
b1000001000000110110011 %
b1000001000000110110011 *
b1000001000000110110011 <
b1000001000000110110011 ^
b1000001000000110110011 a
b10110 5
b11000 7
b11000 n
b10100 $
b10100 8
b10100 `
b10100 d
1'
#420000
0'
#425000
bx #
bx +
bx 4
bx Z
bx o
b11111111111111111111111111111011 "
b11111111111111111111111111111011 ,
b11111111111111111111111111111011 2
b11111111111111111111111111111011 h
b11111111111111111111111111111011 q
b11111111111111111111111111111011 &
b11111111111111111111111111111011 )
b11111111111111111111111111111011 B
b11111111111111111111111111111011 G
b11111111111111111111111111111011 Y
b11111111111111111111111111111011 l
b1 C
b1 F
b1 O
b1 S
b100 g
1I
b10000000010 >
b10000000010 _
b10000000010 m
b11100 9
b11100 c
b1000000001000001000001000110011 %
b1000000001000001000001000110011 *
b1000000001000001000001000110011 <
b1000000001000001000001000110011 ^
b1000000001000001000001000110011 a
b10000011010 5
b11100 7
b11100 n
b11000 $
b11000 8
b11000 `
b11000 d
1'
#430000
0'
#435000
b1111 #
b1111 +
b1111 4
b1111 Z
b1111 o
b0 "
b0 ,
b0 2
b0 h
b0 q
1@
b0 &
b0 )
b0 B
b0 G
b0 Y
b0 l
b10 C
b10 F
b10 O
b10 S
b101 g
0I
b111 H
b111 P
b111 T
b10 >
b10 _
b10 m
b100000 9
b100000 c
b1000001111001010110011 %
b1000001111001010110011 *
b1000001111001010110011 <
b1000001111001010110011 ^
b1000001111001010110011 a
b11110 5
b100000 7
b100000 n
b11100 $
b11100 8
b11100 `
b11100 d
1'
#440000
0'
#445000
b0 #
b0 +
b0 4
b0 Z
b0 o
b1111 "
b1111 ,
b1111 2
b1111 h
b1111 q
0@
b1111 &
b1111 )
b1111 B
b1111 G
b1111 Y
b1111 l
b11 C
b11 F
b11 O
b11 S
b110 g
b110 H
b110 P
b110 T
b100100 9
b100100 c
b1000001110001100110011 %
b1000001110001100110011 *
b1000001110001100110011 <
b1000001110001100110011 ^
b1000001110001100110011 a
b100010 5
b100100 7
b100100 n
b100000 $
b100000 8
b100000 `
b100000 d
1'
#450000
0'
#455000
b111 C
b111 F
b111 O
b111 S
b111 g
b100 H
b100 P
b100 T
b101000 9
b101000 c
b1000001100001110110011 %
b1000001100001110110011 *
b1000001100001110110011 <
b1000001100001110110011 ^
b1000001100001110110011 a
b100110 5
b101000 7
b101000 n
b100100 $
b100100 8
b100100 `
b100100 d
1'
#460000
0'
