riscv_processor_complete.vcd
$date
	Thu Jun  5 23:32:48 2025
$end
$version
	Icarus Verilog
$end
$timescale
	1ps
$end
$scope module riscv_processor_complete_tb $end
$var wire 32 ! write_data_out [31:0] $end
$var wire 32 " read_data_out [31:0] $end
$var wire 32 # pc_out [31:0] $end
$var wire 32 $ instruction_out [31:0] $end
$var wire 32 % alu_result_out [31:0] $end
$var reg 1 & clk $end
$var reg 1 ' reset $end
$scope module uut $end
$var wire 32 ( alu_result_out [31:0] $end
$var wire 1 & clk $end
$var wire 32 ) instruction_out [31:0] $end
$var wire 32 * read_data_out [31:0] $end
$var wire 32 + reg_write_data_out [31:0] $end
$var wire 1 ' reset $end
$var wire 32 , write_data_out [31:0] $end
$var wire 32 - write_data [31:0] $end
$var wire 32 . src_b [31:0] $end
$var wire 32 / src_a [31:0] $end
$var wire 2 0 result_src [1:0] $end
$var wire 32 1 result [31:0] $end
$var wire 1 2 reg_write $end
$var wire 32 3 read_data [31:0] $end
$var wire 32 4 pc_target [31:0] $end
$var wire 1 5 pc_src $end
$var wire 32 6 pc_plus4 [31:0] $end
$var wire 32 7 pc_out [31:0] $end
$var wire 32 8 pc_next [31:0] $end
$var wire 1 9 mem_write $end
$var wire 1 : jump $end
$var wire 32 ; instruction [31:0] $end
$var wire 2 < imm_src [1:0] $end
$var wire 32 = imm_ext [31:0] $end
$var wire 1 > branch $end
$var wire 1 ? alu_zero $end
$var wire 1 @ alu_src $end
$var wire 32 A alu_result [31:0] $end
$var wire 4 B alu_control [3:0] $end
$scope module alu_inst $end
$var wire 32 C src_b [31:0] $end
$var wire 1 ? zero $end
$var wire 32 D src_a [31:0] $end
$var wire 4 E alu_control [3:0] $end
$var reg 32 F alu_result [31:0] $end
$upscope $end
$scope module ctrl $end
$var wire 3 G funct3 [2:0] $end
$var wire 1 H funct7 $end
$var wire 7 I opcode [6:0] $end
$var wire 1 5 pc_src $end
$var wire 1 ? zero $end
$var wire 2 J result_src [1:0] $end
$var wire 1 2 reg_write $end
$var wire 1 9 mem_write $end
$var wire 1 : jump $end
$var wire 2 K imm_src [1:0] $end
$var wire 1 L branch_taken $end
$var wire 1 > branch $end
$var wire 1 @ alu_src $end
$var wire 2 M alu_op [1:0] $end
$var wire 4 N alu_control [3:0] $end
$scope module alu_dec $end
$var wire 3 O funct3 [2:0] $end
$var wire 1 H funct7 $end
$var wire 1 P opcode $end
$var wire 2 Q alu_op [1:0] $end
$var reg 4 R alu_control [3:0] $end
$upscope $end
$scope module branch_logic $end
$var wire 3 S funct3 [2:0] $end
$var wire 1 ? zero $end
$var wire 1 > branch $end
$var reg 1 L branch_taken $end
$upscope $end
$scope module main_dec $end
$var wire 7 T opcode [6:0] $end
$var reg 2 U alu_op [1:0] $end
$var reg 1 @ alu_src $end
$var reg 1 > branch $end
$var reg 2 V imm_src [1:0] $end
$var reg 1 : jump $end
$var reg 1 9 mem_write $end
$var reg 1 2 reg_write $end
$var reg 2 W result_src [1:0] $end
$upscope $end
$upscope $end
$scope module dmem $end
$var wire 32 X address [31:0] $end
$var wire 1 & clk $end
$var wire 32 Y read_data [31:0] $end
$var wire 1 9 we $end
$var wire 32 Z write_data [31:0] $end
$scope begin $ivl_for_loop2 $end
$var integer 32 [ i [31:0] $end
$upscope $end
$upscope $end
$scope module ext $end
$var wire 2 \ imm_src [1:0] $end
$var wire 32 ] instr [31:0] $end
$var reg 32 ^ imm_ext [31:0] $end
$upscope $end
$scope module imem $end
$var wire 32 _ address [31:0] $end
$var reg 32 ` instruction [31:0] $end
$scope begin $ivl_for_loop0 $end
$var integer 32 a i [31:0] $end
$upscope $end
$upscope $end
$scope module pc_inst $end
$var wire 1 & clk $end
$var wire 32 b pc_next [31:0] $end
$var wire 1 ' reset $end
$var reg 32 c pc_out [31:0] $end
$upscope $end
$scope module regfile $end
$var wire 5 d a1 [4:0] $end
$var wire 5 e a2 [4:0] $end
$var wire 5 f a3 [4:0] $end
$var wire 1 & clk $end
$var wire 1 2 we3 $end
$var wire 32 g wd3 [31:0] $end
$var wire 32 h rd2 [31:0] $end
$var wire 32 i rd1 [31:0] $end
$scope begin $ivl_for_loop1 $end
$var integer 32 j i [31:0] $end
$upscope $end
$upscope $end
$scope module res_mux $end
$var wire 32 k alu_result [31:0] $end
$var wire 32 l imm_ext [31:0] $end
$var wire 32 m pc_plus4 [31:0] $end
$var wire 32 n read_data [31:0] $end
$var wire 2 o result_src [1:0] $end
$var reg 32 p result [31:0] $end
$upscope $end
$upscope $end
$upscope $end
$enddefinitions $end
#0
$dumpvars
bx p
bx o
bx n
bx m
bx l
bx k
b100000 j
bx i
bx h
bx g
bx f
bx e
bx d
bx c
bx b
b1000000 a
bx `
bx _
bx ^
bx ]
bx \
b1000000 [
bx Z
bx Y
bx X
bx W
bx V
bx U
bx T
bx S
bx R
bx Q
xP
bx O
bx N
bx M
xL
bx K
bx J
bx I
xH
bx G
bx F
bx E
bx D
bx C
bx B
bx A
x@
x?
x>
bx =
bx <
bx ;
x:
x9
bx 8
bx 7
bx 6
x5
bx 4
bx 3
x2
bx 1
bx 0
bx /
bx .
bx -
bx ,
bx +
bx *
bx )
bx (
1'
0&
bx %
bx $
bx #
bx "
bx !
$end
#5000
b0 "
b0 *
b0 3
b0 Y
b0 n
b101 +
b101 1
b101 g
b101 p
0?
b101 %
b101 (
b101 A
b101 F
b101 X
b101 k
b101 .
b101 C
b0 !
b0 ,
b0 -
b0 Z
b0 h
b0 /
b0 D
b0 i
b0 B
b0 E
b0 N
b0 R
05
0L
0P
b10 M
b10 Q
b10 U
b0 <
b0 K
b0 V
b0 \
0:
12
1@
0>
09
b0 0
b0 J
b0 W
b0 o
b100 8
b100 b
b1 f
b101 e
b0 d
0H
b0 G
b0 O
b0 S
b10011 I
b10011 T
b101 4
b101 =
b101 ^
b101 l
b10100000000000010010011 $
b10100000000000010010011 )
b10100000000000010010011 ;
b10100000000000010010011 ]
b10100000000000010010011 `
b100 6
b100 m
b0 #
b0 7
b0 _
b0 c
1&
#10000
0&
#15000
b1010 +
b1010 1
b1010 g
b1010 p
b1010 %
b1010 (
b1010 A
b1010 F
b1010 X
b1010 k
b1010 .
b1010 C
b10 f
b1010 e
b1010 =
b1010 ^
b1010 l
b1000 8
b1000 b
b101000000000000100010011 $
b101000000000000100010011 )
b101000000000000100010011 ;
b101000000000000100010011 ]
b101000000000000100010011 `
b1110 4
b1000 6
b1000 m
b100 #
b100 7
b100 _
b100 c
1&
0'
#20000
0&
#25000
bx "
bx *
bx 3
bx Y
bx n
b11111111111111111111111111111111 +
b11111111111111111111111111111111 1
b11111111111111111111111111111111 g
b11111111111111111111111111111111 p
b11111111111111111111111111111111 %
b11111111111111111111111111111111 (
b11111111111111111111111111111111 A
b11111111111111111111111111111111 F
b11111111111111111111111111111111 X
b11111111111111111111111111111111 k
b11111111111111111111111111111111 .
b11111111111111111111111111111111 C
b11 f
b11111 e
1H
b11111111111111111111111111111111 =
b11111111111111111111111111111111 ^
b11111111111111111111111111111111 l
b1100 8
b1100 b
b11111111111100000000000110010011 $
b11111111111100000000000110010011 )
b11111111111100000000000110010011 ;
b11111111111100000000000110010011 ]
b11111111111100000000000110010011 `
b111 4
b1100 6
b1100 m
b1000 #
b1000 7
b1000 _
b1000 c
1&
#30000
0&
#35000
b0 "
b0 *
b0 3
b0 Y
b0 n
b10100 +
b10100 1
b10100 g
b10100 p
b10100 %
b10100 (
b10100 A
b10100 F
b10100 X
b10100 k
b1010 !
b1010 ,
b1010 -
b1010 Z
b1010 h
b101 /
b101 D
b101 i
b100 B
b100 E
b100 N
b100 R
b10 .
b10 C
b100 f
b10 e
b1 d
0H
b1 G
b1 O
b1 S
b10 =
b10 ^
b10 l
b10000 8
b10000 b
b1000001001001000010011 $
b1000001001001000010011 )
b1000001001001000010011 ;
b1000001001001000010011 ]
b1000001001001000010011 `
b1110 4
b10000 6
b10000 m
b1100 #
b1100 7
b1100 _
b1100 c
1&
#40000
0&
#45000
b0 +
b0 1
b0 g
b0 p
1?
b0 %
b0 (
b0 A
b0 F
b0 X
b0 k
b101 B
b101 E
b101 N
b101 R
b101 f
b10 G
b10 O
b10 S
b10100 8
b10100 b
b1000001010001010010011 $
b1000001010001010010011 )
b1000001010001010010011 ;
b1000001010001010010011 ]
b1000001010001010010011 `
b10010 4
b10100 6
b10100 m
b10000 #
b10000 7
b10000 _
b10000 c
1&
#50000
0&
#55000
b1111 +
b1111 1
b1111 g
b1111 p
0?
b1111 %
b1111 (
b1111 A
b1111 F
b1111 X
b1111 k
b1010 .
b1010 C
b0 B
b0 E
b0 N
b0 R
1P
b10 M
b10 Q
b10 U
12
0@
b11 f
b0 G
b0 O
b0 S
b110011 I
b110011 T
b11000 8
b11000 b
b1000001000000110110011 $
b1000001000000110110011 )
b1000001000000110110011 ;
b1000001000000110110011 ]
b1000001000000110110011 `
b10110 4
b11000 6
b11000 m
b10100 #
b10100 7
b10100 _
b10100 c
1&
#60000
0&
#65000
bx "
bx *
bx 3
bx Y
bx n
b11111111111111111111111111111011 +
b11111111111111111111111111111011 1
b11111111111111111111111111111011 g
b11111111111111111111111111111011 p
b11111111111111111111111111111011 %
b11111111111111111111111111111011 (
b11111111111111111111111111111011 A
b11111111111111111111111111111011 F
b11111111111111111111111111111011 X
b11111111111111111111111111111011 k
b1 B
b1 E
b1 N
b1 R
b100 f
1H
b10000000010 =
b10000000010 ^
b10000000010 l
b11100 8
b11100 b
b1000000001000001000001000110011 $
b1000000001000001000001000110011 )
b1000000001000001000001000110011 ;
b1000000001000001000001000110011 ]
b1000000001000001000001000110011 `
b10000011010 4
b11100 6
b11100 m
b11000 #
b11000 7
b11000 _
b11000 c
1&
#70000
0&
#75000
b0 "
b0 *
b0 3
b0 Y
b0 n
b0 +
b0 1
b0 g
b0 p
1?
b0 %
b0 (
b0 A
b0 F
b0 X
b0 k
b10 B
b10 E
b10 N
b10 R
b101 f
0H
b111 G
b111 O
b111 S
b10 =
b10 ^
b10 l
b100000 8
b100000 b
b1000001111001010110011 $
b1000001111001010110011 )
b1000001111001010110011 ;
b1000001111001010110011 ]
b1000001111001010110011 `
b11110 4
b100000 6
b100000 m
b11100 #
b11100 7
b11100 _
b11100 c
1&
#80000
0&
#85000
b1111 +
b1111 1
b1111 g
b1111 p
0?
b1111 %
b1111 (
b1111 A
b1111 F
b1111 X
b1111 k
b11 B
b11 E
b11 N
b11 R
b110 f
b110 G
b110 O
b110 S
b100100 8
b100100 b
b1000001110001100110011 $
b1000001110001100110011 )
b1000001110001100110011 ;
b1000001110001100110011 ]
b1000001110001100110011 `
b100010 4
b100100 6
b100100 m
b100000 #
b100000 7
b100000 _
b100000 c
1&
#90000
0&
#95000
b111 B
b111 E
b111 N
b111 R
b111 f
b100 G
b100 O
b100 S
b101000 8
b101000 b
b1000001100001110110011 $
b1000001100001110110011 )
b1000001100001110110011 ;
b1000001100001110110011 ]
b1000001100001110110011 `
b100110 4
b101000 6
b101000 m
b100100 #
b100100 7
b100100 _
b100100 c
1&
#100000
0&
#105000
bx "
bx *
bx 3
bx Y
bx n
b1010000000000 +
b1010000000000 1
b1010000000000 g
b1010000000000 p
b1010000000000 %
b1010000000000 (
b1010000000000 A
b1010000000000 F
b1010000000000 X
b1010000000000 k
b100 B
b100 E
b100 N
b100 R
b1001 f
b1 G
b1 O
b1 S
b101100 8
b101100 b
b1000001001010010110011 $
b1000001001010010110011 )
b1000001001010010110011 ;
b1000001001010010110011 ]
b1000001001010010110011 `
b101010 4
b101100 6
b101100 m
b101000 #
b101000 7
b101000 _
b101000 c
1&
#110000
0&
#115000
b0 "
b0 *
b0 3
b0 Y
b0 n
b1 +
b1 1
b1 g
b1 p
b1 %
b1 (
b1 A
b1 F
b1 X
b1 k
b101 B
b101 E
b101 N
b101 R
b1010 f
b10 G
b10 O
b10 S
b110000 8
b110000 b
b1000001010010100110011 $
b1000001010010100110011 )
b1000001010010100110011 ;
b1000001010010100110011 ]
b1000001010010100110011 `
b101110 4
b110000 6
b110000 m
b101100 #
b101100 7
b101100 _
b101100 c
1&
#120000
0&
#125000
bx "
bx *
bx 3
bx Y
bx n
b10010000000001010 %
b10010000000001010 (
b10010000000001010 A
b10010000000001010 F
b10010000000001010 X
b10010000000001010 k
b10010000000000000 .
b10010000000000000 C
b10010000000000000 +
b10010000000000000 1
b10010000000000000 g
b10010000000000000 p
b0 B
b0 E
b0 N
b0 R
b0 !
b0 ,
b0 -
b0 Z
b0 h
b1010 /
b1010 D
b1010 i
b11 <
b11 K
b11 V
b11 \
1@
b11 0
b11 J
b11 W
b11 o
b0 M
b0 Q
b0 U
12
b1011 f
b0 e
b10 d
b110111 I
b110111 T
b10010000000000000 =
b10010000000000000 ^
b10010000000000000 l
b110100 8
b110100 b
b10010010110110111 $
b10010010110110111 )
b10010010110110111 ;
b10010010110110111 ]
b10010010110110111 `
b10010000000110000 4
b110100 6
b110100 m
b110000 #
b110000 7
b110000 _
b110000 c
1&
#130000
0&
#135000
b10010000000001010 +
b10010000000001010 1
b10010000000001010 g
b10010000000001010 p
0P
b11 <
b11 K
b11 V
b11 \
12
1@
b0 0
b0 J
b0 W
b0 o
b1100 f
b10111 I
b10111 T
b111000 8
b111000 b
b10010011000010111 $
b10010011000010111 )
b10010011000010111 ;
b10010011000010111 ]
b10010011000010111 `
b10010000000110100 4
b111000 6
b111000 m
b110100 #
b110100 7
b110100 _
b110100 c
1&
#140000
0&
#145000
b0 "
b0 *
b0 3
b0 Y
b0 n
1?
b0 +
b0 1
b0 g
b0 p
b0 %
b0 (
b0 A
b0 F
b0 X
b0 k
b1111 !
b1111 ,
b1111 -
b1111 Z
b1111 h
b0 /
b0 D
b0 i
1P
19
b1 <
b1 K
b1 V
b1 \
02
1@
b0 .
b0 C
b0 f
b11 e
b0 d
b100011 I
b100011 T
b0 =
b0 ^
b0 l
b111100 8
b111100 b
b1100000010000000100011 $
b1100000010000000100011 )
b1100000010000000100011 ;
b1100000010000000100011 ]
b1100000010000000100011 `
b111000 4
b111100 6
b111100 m
b111000 #
b111000 7
b111000 _
b111000 c
1&
#150000
0&
#155000
b100 +
b100 1
b100 g
b100 p
0?
b100 %
b100 (
b100 A
b100 F
b100 X
b100 k
b11111111111111111111111111111011 !
b11111111111111111111111111111011 ,
b11111111111111111111111111111011 -
b11111111111111111111111111111011 Z
b11111111111111111111111111111011 h
b100 .
b100 C
b100 f
b100 e
b100 =
b100 ^
b100 l
b1000000 8
b1000000 b
b10000000010001000100011 $
b10000000010001000100011 )
b10000000010001000100011 ;
b10000000010001000100011 ]
b10000000010001000100011 `
b0 "
b0 *
b0 3
b0 Y
b0 n
b1000000 4
b1000000 6
b1000000 m
b111100 #
b111100 7
b111100 _
b111100 c
1&
#160000
0&
#165000
1?
b1111 +
b1111 1
b1111 g
b1111 p
b0 %
b0 (
b0 A
b0 F
b0 X
b0 k
b0 !
b0 ,
b0 -
b0 Z
b0 h
0P
12
b1 0
b1 J
b1 W
b1 o
b0 <
b0 K
b0 V
b0 \
1@
09
b0 .
b0 C
b1101 f
b0 e
b11 I
b11 T
b0 =
b0 ^
b0 l
b1000100 8
b1000100 b
b10011010000011 $
b10011010000011 )
b10011010000011 ;
b10011010000011 ]
b10011010000011 `
b1000000 4
b1000100 6
b1000100 m
b1000000 #
b1000000 7
b1000000 _
b1000000 c
b1111 "
b1111 *
b1111 3
b1111 Y
b1111 n
1&
#170000
0&
#175000
b11111111111111111111111111111011 +
b11111111111111111111111111111011 1
b11111111111111111111111111111011 g
b11111111111111111111111111111011 p
b11111111111111111111111111111011 "
b11111111111111111111111111111011 *
b11111111111111111111111111111011 3
b11111111111111111111111111111011 Y
b11111111111111111111111111111011 n
0?
b100 %
b100 (
b100 A
b100 F
b100 X
b100 k
b11111111111111111111111111111011 !
b11111111111111111111111111111011 ,
b11111111111111111111111111111011 -
b11111111111111111111111111111011 Z
b11111111111111111111111111111011 h
b100 .
b100 C
b1110 f
b100 e
b100 =
b100 ^
b100 l
b1001000 8
b1001000 b
b10000000010011100000011 $
b10000000010011100000011 )
b10000000010011100000011 ;
b10000000010011100000011 ]
b10000000010011100000011 `
b1001000 4
b1001000 6
b1001000 m
b1000100 #
b1000100 7
b1000100 _
b1000100 c
1&
#180000
0&
#185000
bx "
bx *
bx 3
bx Y
bx n
b11111111111111111111111111111011 +
b11111111111111111111111111111011 1
b11111111111111111111111111111011 g
b11111111111111111111111111111011 p
b11111111111111111111111111111011 %
b11111111111111111111111111111011 (
b11111111111111111111111111111011 A
b11111111111111111111111111111011 F
b11111111111111111111111111111011 X
b11111111111111111111111111111011 k
b1010 !
b1010 ,
b1010 -
b1010 Z
b1010 h
b101 /
b101 D
b101 i
b1 B
b1 E
b1 N
b1 R
1P
b1 M
b1 Q
b1 U
b10 <
b10 K
b10 V
b10 \
1>
02
0@
b0 0
b0 J
b0 W
b0 o
b1010 .
b1010 C
b1000 f
b10 e
b1 d
b0 G
b0 O
b0 S
b1100011 I
b1100011 T
b1000 =
b1000 ^
b1000 l
b1001100 8
b1001100 b
b1000001000010001100011 $
b1000001000010001100011 )
b1000001000010001100011 ;
b1000001000010001100011 ]
b1000001000010001100011 `
b1010000 4
b1001100 6
b1001100 m
b1001000 #
b1001000 7
b1001000 _
b1001000 c
1&
#190000
0&
#195000
15
1L
b1 G
b1 O
b1 S
b1010100 8
b1010100 b
b1000001001010001100011 $
b1000001001010001100011 )
b1000001001010001100011 ;
b1000001001010001100011 ]
b1000001001010001100011 `
b1010100 4
b1010000 6
b1010000 m
b1001100 #
b1001100 7
b1001100 _
b1001100 c
1&
#200000
0&
#205000
05
0L
b101 G
b101 O
b101 S
b1011000 8
b1011000 b
b1000001101010001100011 $
b1000001101010001100011 )
b1000001101010001100011 ;
b1000001101010001100011 ]
b1000001101010001100011 `
b1011100 4
b1011000 6
b1011000 m
b1010100 #
b1010100 7
b1010100 _
b1010100 c
1&
#210000
0&
#215000
b0 "
b0 *
b0 3
b0 Y
b0 n
b1000 %
b1000 (
b1000 A
b1000 F
b1000 X
b1000 k
b1000 .
b1000 C
b1011100 +
b1011100 1
b1011100 g
b1011100 p
b0 !
b0 ,
b0 -
b0 Z
b0 h
b0 /
b0 D
b0 i
b0 B
b0 E
b0 N
b0 R
1:
12
1@
b10 0
b10 J
b10 W
b10 o
b0 M
b0 Q
b0 U
b11 <
b11 K
b11 V
b11 \
0>
b1 f
b1000 e
b0 d
b0 G
b0 O
b0 S
b1101111 I
b1101111 T
b1000 =
b1000 ^
b1000 l
b1100000 8
b1100000 b
b100000000000000011101111 $
b100000000000000011101111 )
b100000000000000011101111 ;
b100000000000000011101111 ]
b100000000000000011101111 `
b1100000 4
b1011100 6
b1011100 m
b1011000 #
b1011000 7
b1011000 _
b1011000 c
1&
#220000
0&
#225000
b1111 "
b1111 *
b1111 3
b1111 Y
b1111 n
1?
b0 %
b0 (
b0 A
b0 F
b0 X
b0 k
0P
b10 M
b10 Q
b10 U
b0 <
b0 K
b0 V
b0 \
0:
12
1@
b0 0
b0 J
b0 W
b0 o
b0 .
b0 C
b0 f
b0 e
b10011 I
b10011 T
b0 =
b0 ^
b0 l
b1100100 8
b1100100 b
b0 +
b0 1
b0 g
b0 p
b10011 $
b10011 )
b10011 ;
b10011 ]
b10011 `
b1100000 4
b1100100 6
b1100100 m
b1100000 #
b1100000 7
b1100000 _
b1100000 c
1&
#230000
0&
#235000
b1101000 8
b1101000 b
b1100100 4
b1101000 6
b1101000 m
b1100100 #
b1100100 7
b1100100 _
b1100100 c
1&
#240000
0&
#245000
b0 "
b0 *
b0 3
b0 Y
b0 n
b1101100 +
b1101100 1
b1101100 g
b1101100 p
0?
b1011101 %
b1011101 (
b1011101 A
b1011101 F
b1011101 X
b1011101 k
b1011100 !
b1011100 ,
b1011100 -
b1011100 Z
b1011100 h
b1011100 /
b1011100 D
b1011100 i
1P
1:
b10 0
b10 J
b10 W
b10 o
b0 M
b0 Q
b0 U
12
1@
b1 .
b1 C
b1 e
b1 d
b1100111 I
b1100111 T
b1 =
b1 ^
b1 l
b1101001 8
b1101001 b
b100001000000001100111 $
b100001000000001100111 )
b100001000000001100111 ;
b100001000000001100111 ]
b100001000000001100111 `
b1101001 4
b1101100 6
b1101100 m
b1101000 #
b1101000 7
b1101000 _
b1101000 c
1&
#250000
0&
#255000
b1101010 8
b1101010 b
b1101101 +
b1101101 1
b1101101 g
b1101101 p
b1101010 4
b1101101 6
b1101101 m
b1101001 #
b1101001 7
b1101001 _
b1101001 c
1&
#260000
0&
#265000
b1101011 8
b1101011 b
b1101110 +
b1101110 1
b1101110 g
b1101110 p
b1101011 4
b1101110 6
b1101110 m
b1101010 #
b1101010 7
b1101010 _
b1101010 c
1&
#270000
0&
#275000
b1101100 8
b1101100 b
b1101111 +
b1101111 1
b1101111 g
b1101111 p
b1101100 4
b1101111 6
b1101111 m
b1101011 #
b1101011 7
b1101011 _
b1101011 c
1&
#280000
0&
#285000
b1111 "
b1111 *
b1111 3
b1111 Y
b1111 n
b11 %
b11 (
b11 A
b11 F
b11 X
b11 k
b1111 !
b1111 ,
b1111 -
b1111 Z
b1111 h
b0 /
b0 D
b0 i
0P
b10 M
b10 Q
b10 U
0:
12
1@
b0 0
b0 J
b0 W
b0 o
b11 .
b11 C
b1111 f
b11 e
b0 d
b10011 I
b10011 T
b11 =
b11 ^
b11 l
b1110000 8
b1110000 b
b11 +
b11 1
b11 g
b11 p
b1100000000011110010011 $
b1100000000011110010011 )
b1100000000011110010011 ;
b1100000000011110010011 ]
b1100000000011110010011 `
b1101111 4
b1110000 6
b1110000 m
b1101100 #
b1101100 7
b1101100 _
b1101100 c
1&
#290000
0&
#295000
b0 +
b0 1
b0 g
b0 p
1?
b0 %
b0 (
b0 A
b0 F
b0 X
b0 k
b0 !
b0 ,
b0 -
b0 Z
b0 h
b0 .
b0 C
b0 f
b0 e
b0 =
b0 ^
b0 l
b1110100 8
b1110100 b
b10011 $
b10011 )
b10011 ;
b10011 ]
b10011 `
b1110000 4
b1110100 6
b1110100 m
b1110000 #
b1110000 7
b1110000 _
b1110000 c
1&
#300000
0&
#305000
b1111000 8
b1111000 b
b1110100 4
b1111000 6
b1111000 m
b1110100 #
b1110100 7
b1110100 _
b1110100 c
1&
#306000
1'
#310000
0&
#315000
b11111111111111111111111111111011 "
b11111111111111111111111111111011 *
b11111111111111111111111111111011 3
b11111111111111111111111111111011 Y
b11111111111111111111111111111011 n
b101 +
b101 1
b101 g
b101 p
0?
b101 %
b101 (
b101 A
b101 F
b101 X
b101 k
b101 .
b101 C
b1 f
b101 e
b101 =
b101 ^
b101 l
b100 8
b100 b
b10100000000000010010011 $
b10100000000000010010011 )
b10100000000000010010011 ;
b10100000000000010010011 ]
b10100000000000010010011 `
b101 4
b100 6
b100 m
b0 #
b0 7
b0 _
b0 c
1&
#316000
0'
#320000
0&
#325000
b0 "
b0 *
b0 3
b0 Y
b0 n
b1010 +
b1010 1
b1010 g
b1010 p
b1010 %
b1010 (
b1010 A
b1010 F
b1010 X
b1010 k
b1 !
b1 ,
b1 -
b1 Z
b1 h
b1010 .
b1010 C
b10 f
b1010 e
b1010 =
b1010 ^
b1010 l
b1000 8
b1000 b
b101000000000000100010011 $
b101000000000000100010011 )
b101000000000000100010011 ;
b101000000000000100010011 ]
b101000000000000100010011 `
b1110 4
b1000 6
b1000 m
b100 #
b100 7
b100 _
b100 c
1&
#330000
0&
#335000
bx "
bx *
bx 3
bx Y
bx n
b11111111111111111111111111111111 +
b11111111111111111111111111111111 1
b11111111111111111111111111111111 g
b11111111111111111111111111111111 p
b11111111111111111111111111111111 %
b11111111111111111111111111111111 (
b11111111111111111111111111111111 A
b11111111111111111111111111111111 F
b11111111111111111111111111111111 X
b11111111111111111111111111111111 k
b0 !
b0 ,
b0 -
b0 Z
b0 h
b11111111111111111111111111111111 .
b11111111111111111111111111111111 C
b11 f
b11111 e
1H
b11111111111111111111111111111111 =
b11111111111111111111111111111111 ^
b11111111111111111111111111111111 l
b1100 8
b1100 b
b11111111111100000000000110010011 $
b11111111111100000000000110010011 )
b11111111111100000000000110010011 ;
b11111111111100000000000110010011 ]
b11111111111100000000000110010011 `
b111 4
b1100 6
b1100 m
b1000 #
b1000 7
b1000 _
b1000 c
1&
#340000
0&
#345000
b0 "
b0 *
b0 3
b0 Y
b0 n
b10100 +
b10100 1
b10100 g
b10100 p
b10100 %
b10100 (
b10100 A
b10100 F
b10100 X
b10100 k
b1010 !
b1010 ,
b1010 -
b1010 Z
b1010 h
b101 /
b101 D
b101 i
b100 B
b100 E
b100 N
b100 R
b10 .
b10 C
b100 f
b10 e
b1 d
0H
b1 G
b1 O
b1 S
b10 =
b10 ^
b10 l
b10000 8
b10000 b
b1000001001001000010011 $
b1000001001001000010011 )
b1000001001001000010011 ;
b1000001001001000010011 ]
b1000001001001000010011 `
b1110 4
b10000 6
b10000 m
b1100 #
b1100 7
b1100 _
b1100 c
1&
#350000
0&
#355000
b1111 "
b1111 *
b1111 3
b1111 Y
b1111 n
b0 +
b0 1
b0 g
b0 p
1?
b0 %
b0 (
b0 A
b0 F
b0 X
b0 k
b101 B
b101 E
b101 N
b101 R
b101 f
b10 G
b10 O
b10 S
b10100 8
b10100 b
b1000001010001010010011 $
b1000001010001010010011 )
b1000001010001010010011 ;
b1000001010001010010011 ]
b1000001010001010010011 `
b10010 4
b10100 6
b10100 m
b10000 #
b10000 7
b10000 _
b10000 c
1&
#360000
0&
#365000
b0 "
b0 *
b0 3
b0 Y
b0 n
b1111 +
b1111 1
b1111 g
b1111 p
0?
b1111 %
b1111 (
b1111 A
b1111 F
b1111 X
b1111 k
b1010 .
b1010 C
b0 B
b0 E
b0 N
b0 R
1P
b10 M
b10 Q
b10 U
12
0@
b11 f
b0 G
b0 O
b0 S
b110011 I
b110011 T
b11000 8
b11000 b
b1000001000000110110011 $
b1000001000000110110011 )
b1000001000000110110011 ;
b1000001000000110110011 ]
b1000001000000110110011 `
b10110 4
b11000 6
b11000 m
b10100 #
b10100 7
b10100 _
b10100 c
1&
#370000
0&
#375000
bx "
bx *
bx 3
bx Y
bx n
b11111111111111111111111111111011 +
b11111111111111111111111111111011 1
b11111111111111111111111111111011 g
b11111111111111111111111111111011 p
b11111111111111111111111111111011 %
b11111111111111111111111111111011 (
b11111111111111111111111111111011 A
b11111111111111111111111111111011 F
b11111111111111111111111111111011 X
b11111111111111111111111111111011 k
b1 B
b1 E
b1 N
b1 R
b100 f
1H
b10000000010 =
b10000000010 ^
b10000000010 l
b11100 8
b11100 b
b1000000001000001000001000110011 $
b1000000001000001000001000110011 )
b1000000001000001000001000110011 ;
b1000000001000001000001000110011 ]
b1000000001000001000001000110011 `
b10000011010 4
b11100 6
b11100 m
b11000 #
b11000 7
b11000 _
b11000 c
1&
#380000
0&
#385000
b1111 "
b1111 *
b1111 3
b1111 Y
b1111 n
b0 +
b0 1
b0 g
b0 p
1?
b0 %
b0 (
b0 A
b0 F
b0 X
b0 k
b10 B
b10 E
b10 N
b10 R
b101 f
0H
b111 G
b111 O
b111 S
b10 =
b10 ^
b10 l
b100000 8
b100000 b
b1000001111001010110011 $
b1000001111001010110011 )
b1000001111001010110011 ;
b1000001111001010110011 ]
b1000001111001010110011 `
b11110 4
b100000 6
b100000 m
b11100 #
b11100 7
b11100 _
b11100 c
1&
#390000
0&
#395000
b0 "
b0 *
b0 3
b0 Y
b0 n
b1111 +
b1111 1
b1111 g
b1111 p
0?
b1111 %
b1111 (
b1111 A
b1111 F
b1111 X
b1111 k
b11 B
b11 E
b11 N
b11 R
b110 f
b110 G
b110 O
b110 S
b100100 8
b100100 b
b1000001110001100110011 $
b1000001110001100110011 )
b1000001110001100110011 ;
b1000001110001100110011 ]
b1000001110001100110011 `
b100010 4
b100100 6
b100100 m
b100000 #
b100000 7
b100000 _
b100000 c
1&
#400000
0&
#405000
b111 B
b111 E
b111 N
b111 R
b111 f
b100 G
b100 O
b100 S
b101000 8
b101000 b
b1000001100001110110011 $
b1000001100001110110011 )
b1000001100001110110011 ;
b1000001100001110110011 ]
b1000001100001110110011 `
b100110 4
b101000 6
b101000 m
b100100 #
b100100 7
b100100 _
b100100 c
1&
#410000
0&
#415000
bx "
bx *
bx 3
bx Y
bx n
b1010000000000 +
b1010000000000 1
b1010000000000 g
b1010000000000 p
b1010000000000 %
b1010000000000 (
b1010000000000 A
b1010000000000 F
b1010000000000 X
b1010000000000 k
b100 B
b100 E
b100 N
b100 R
b1001 f
b1 G
b1 O
b1 S
b101100 8
b101100 b
b1000001001010010110011 $
b1000001001010010110011 )
b1000001001010010110011 ;
b1000001001010010110011 ]
b1000001001010010110011 `
b101010 4
b101100 6
b101100 m
b101000 #
b101000 7
b101000 _
b101000 c
1&
#420000
0&
#425000
b1111 "
b1111 *
b1111 3
b1111 Y
b1111 n
b1 +
b1 1
b1 g
b1 p
b1 %
b1 (
b1 A
b1 F
b1 X
b1 k
b101 B
b101 E
b101 N
b101 R
b1010 f
b10 G
b10 O
b10 S
b110000 8
b110000 b
b1000001010010100110011 $
b1000001010010100110011 )
b1000001010010100110011 ;
b1000001010010100110011 ]
b1000001010010100110011 `
b101110 4
b110000 6
b110000 m
b101100 #
b101100 7
b101100 _
b101100 c
1&
#430000
0&
